{
  "project_info": {
    "project_number": "592838870468",
    "firebase_url": "https://opsgeniemini.firebaseio.com",
    "project_id": "opsgeniemini",
    "storage_bucket": "opsgeniemini.appspot.com"
  },
  "client": [
    {
      "client_info": {
        "mobilesdk_app_id": "1:592838870468:android:e89fb6bb2faa972f",
        "android_client_info": {
          "package_name": "aca.opsgeniemini"
        }
      },
      "oauth_client": [
        {
          "client_id": "592838870468-lka0naedljfrosp5ngvq92tv75p248lp.apps.googleusercontent.com",
          "client_type": 3
        },
        {
          "client_id": "592838870468-lka0naedljfrosp5ngvq92tv75p248lp.apps.googleusercontent.com",
          "client_type": 3
        }
      ],
      "api_key": [
        {
          "current_key": "AIzaSyCYevgMwgvAVg9XjkfqH5pTtwk60hXVGII"
        }
      ],
      "services": {
        "analytics_service": {
          "status": 1
        },
        "appinvite_service": {
          "status": 1,
          "other_platform_oauth_client": []
        },
        "ads_service": {
          "status": 2
        }
      }
    }
  ],
  "configuration_version": "1"
}